{
  "subgroups": {
    "name": "Subgroups",
    "stage": "manage",
    "group": "access",
    "label": "Category:Subgroups",
    "feature_labels": [
      "group templates",
      "subgroups"
    ]
  },
  "templates": {
    "name": "Templates",
    "stage": "manage",
    "group": "import",
    "label": "Category:Templates",
    "feature_labels": []
  },
  "audit_events": {
    "name": "Audit Events",
    "stage": "manage",
    "group": "compliance",
    "label": "Category:Audit Events",
    "feature_labels": []
  },
  "audit_reports": {
    "name": "Audit Reports",
    "stage": "manage",
    "group": "compliance",
    "label": "Category:Audit Reports",
    "feature_labels": []
  },
  "compliance_management": {
    "name": "Compliance Management",
    "stage": "manage",
    "group": "compliance",
    "label": "Category:Compliance Management",
    "feature_labels": []
  },
  "authentication_and_authorization": {
    "name": "Authentication and Authorization",
    "stage": "manage",
    "group": "access",
    "label": "Category:Authentication and Authorization",
    "feature_labels": [
      "2FA",
      "authentication",
      "authorization",
      "ldap",
      "oauth",
      "saml"
    ]
  },
  "users": {
    "name": "Users",
    "stage": "manage",
    "group": "access",
    "label": "Category:Users",
    "feature_labels": [
      "user management",
      "user profile",
      "user creation",
      "user settings"
    ]
  },
  "code_analytics": {
    "name": "Code Analytics",
    "stage": "manage",
    "group": "optimize",
    "label": "Category:Code Analytics",
    "feature_labels": [
      "analytics"
    ]
  },
  "devops_reports": {
    "name": "DevOps Reports",
    "stage": "manage",
    "group": "optimize",
    "label": "Category:DevOps Reports",
    "feature_labels": [
      "convdev",
      "devops score"
    ]
  },
  "importers": {
    "name": "Importers",
    "stage": "manage",
    "group": "import",
    "label": "Category:Importers",
    "feature_labels": [
      "import",
      "project export",
      "project import"
    ]
  },
  "planning_analytics": {
    "name": "Planning Analytics",
    "stage": "manage",
    "group": "optimize",
    "label": "Category:Planning Analytics",
    "feature_labels": []
  },
  "internationalization": {
    "name": "Internationalization",
    "stage": "manage",
    "group": "import",
    "label": "Category:Internationalization",
    "feature_labels": []
  },
  "value_stream_management": {
    "name": "Value Stream Management",
    "stage": "manage",
    "group": "optimize",
    "label": "Category:Value Stream Management",
    "feature_labels": [
      "value stream analytics"
    ]
  },
  "insights": {
    "name": "Insights",
    "stage": "manage",
    "group": "optimize",
    "label": "Category:Insights",
    "feature_labels": []
  },
  "issue_tracking": {
    "name": "Issue Tracking",
    "stage": "plan",
    "group": "project_management",
    "label": "Category:Issue Tracking",
    "feature_labels": [
      "filter bar",
      "issue weight",
      "issues",
      "labels",
      "markdown",
      "milestones",
      "notifications",
      "quick actions",
      "todos"
    ]
  },
  "jira_importer": {
    "name": "Jira Importer",
    "stage": "plan",
    "group": "project_management",
    "label": "Category:Jira Importer",
    "feature_labels": []
  },
  "time_tracking": {
    "name": "Time Tracking",
    "stage": "plan",
    "group": "project_management",
    "label": "Category:Time Tracking",
    "feature_labels": []
  },
  "boards": {
    "name": "Boards",
    "stage": "plan",
    "group": "project_management",
    "label": "Category:Boards",
    "feature_labels": []
  },
  "epics": {
    "name": "Epics",
    "stage": "plan",
    "group": "product_planning",
    "label": "Category:Epics",
    "feature_labels": [
      "sub-epics"
    ]
  },
  "roadmaps": {
    "name": "Roadmaps",
    "stage": "plan",
    "group": "product_planning",
    "label": "Category:Roadmaps",
    "feature_labels": []
  },
  "service_desk": {
    "name": "Service Desk",
    "stage": "plan",
    "group": "certify",
    "label": "Category:Service Desk",
    "feature_labels": []
  },
  "requirements_management": {
    "name": "Requirements Management",
    "stage": "plan",
    "group": "certify",
    "label": "Category:Requirements Management",
    "feature_labels": []
  },
  "quality_management": {
    "name": "Quality Management",
    "stage": "plan",
    "group": "certify",
    "label": "Category:Quality Management",
    "feature_labels": []
  },
  "projects": {
    "name": "Projects",
    "stage": "plan",
    "group": "project_management",
    "label": "Category:Projects",
    "feature_labels": []
  },
  "design_management": {
    "name": "Design Management",
    "stage": "plan",
    "group": "product_planning",
    "label": "Category:Design Management",
    "feature_labels": []
  },
  "source_code_management": {
    "name": "Source Code Management",
    "stage": "create",
    "group": "source_code",
    "label": "Category:Source Code Management",
    "feature_labels": [
      "encoding",
      "forking",
      "lfs",
      "mirror",
      "repository"
    ]
  },
  "code_review": {
    "name": "Code Review",
    "stage": "create",
    "group": "code_review",
    "label": "Category:Code Review",
    "feature_labels": [
      "image diff",
      "diff",
      "approvals",
      "merge requests"
    ]
  },
  "wiki": {
    "name": "Wiki",
    "stage": "create",
    "group": "editor",
    "label": "Category:Wiki",
    "feature_labels": []
  },
  "static_site_editor": {
    "name": "Static Site Editor",
    "stage": "create",
    "group": "editor",
    "label": "Category:Static Site Editor",
    "feature_labels": []
  },
  "gitlab_handbook": {
    "name": "GitLab Handbook",
    "stage": "create",
    "group": null,
    "label": "Category:GitLab Handbook",
    "feature_labels": []
  },
  "gitlab_docs": {
    "name": "GitLab Documentation Site",
    "stage": "create",
    "group": "editor",
    "label": "Category:Docs Site",
    "feature_labels": [
      "gitlab docs"
    ]
  },
  "web_ide": {
    "name": "Web IDE",
    "stage": "create",
    "group": "editor",
    "label": "Category:Web IDE",
    "feature_labels": [
      "web edit"
    ]
  },
  "editor_extension": {
    "name": "Editor Extension",
    "stage": "create",
    "group": "code_review",
    "label": "Category:Editor Extension",
    "feature_labels": [
      "VS Code"
    ]
  },
  "live_preview": {
    "name": "Live Preview",
    "stage": "create",
    "group": "editor",
    "label": "Category:Live Preview",
    "feature_labels": []
  },
  "snippets": {
    "name": "Snippets",
    "stage": "create",
    "group": "editor",
    "label": "Category:Snippets",
    "feature_labels": []
  },
  "gitaly": {
    "name": "Gitaly",
    "stage": "create",
    "group": "gitaly",
    "label": "Category:Gitaly",
    "feature_labels": [
      "Gitaly HA",
      "Gitaly n+1"
    ]
  },
  "integrations": {
    "name": "Integrations",
    "stage": "create",
    "group": "ecosystem",
    "label": "Category:Integrations",
    "feature_labels": [
      "external services",
      "Jira",
      "ServiceNow",
      "Jenkins",
      "Slack",
      "Category:Integrations"
    ]
  },
  "api": {
    "name": "API",
    "stage": "create",
    "group": "ecosystem",
    "label": "Category:API",
    "feature_labels": []
  },
  "gdk": {
    "name": "GDK",
    "stage": "create",
    "group": "ecosystem",
    "label": "Category:GDK",
    "feature_labels": []
  },
  "foundations": {
    "name": "FE/UX Foundations",
    "stage": "create",
    "group": "ecosystem",
    "label": "Category:FE/UX Foundations",
    "feature_labels": []
  },
  "continuous_integration": {
    "name": "Continuous Integration (CI)",
    "stage": "verify",
    "group": "continuous_integration",
    "label": "Category:Continuous Integration",
    "feature_labels": [
      "ci::artifacts",
      "ci::variables",
      "ci::usage",
      "ci::processing",
      "ci::permissions",
      "ci::api-interactions",
      "ci::notifications",
      "ci::metrics",
      "ci::merge-request"
    ]
  },
  "pipeline_authoring": {
    "name": "Pipeline Authoring",
    "stage": "verify",
    "group": "pipeline_authoring",
    "label": "Category:Pipeline Authoring",
    "feature_labels": [
      "ci::persistence",
      "ci::rules",
      "ci::integrations",
      "ci::bridge-pipelines",
      "ci::dag",
      "ci::pipeline-graphs"
    ]
  },
  "runner": {
    "name": "GitLab Runner",
    "stage": "verify",
    "group": "runner",
    "label": "Category:Runner",
    "feature_labels": []
  },
  "jenkins_importer": {
    "name": "Jenkins Importer",
    "stage": "verify",
    "group": "continuous_integration",
    "label": "Category:Jenkins Importer",
    "feature_labels": []
  },
  "code_quality": {
    "name": "Code Quality",
    "stage": "verify",
    "group": "testing",
    "label": "Category:Code Quality",
    "feature_labels": []
  },
  "code_testing": {
    "name": "Code Testing and Coverage",
    "stage": "verify",
    "group": "testing",
    "label": "Category:Code Testing and Coverage",
    "feature_labels": []
  },
  "load_testing": {
    "name": "Load Testing",
    "stage": "verify",
    "group": "testing",
    "label": "Category:Load Testing",
    "feature_labels": []
  },
  "web_performance": {
    "name": "Web Performance",
    "stage": "verify",
    "group": "testing",
    "label": "Category:Web Performance",
    "feature_labels": []
  },
  "usability_testing": {
    "name": "Usability Testing",
    "stage": "verify",
    "group": "testing",
    "label": "Category:Usability Testing",
    "feature_labels": []
  },
  "accessibility_testing": {
    "name": "Accessibility Testing",
    "stage": "verify",
    "group": "testing",
    "label": "Category:Accessibility Testing",
    "feature_labels": []
  },
  "package_registry": {
    "name": "Package Registry",
    "stage": "package",
    "group": "package",
    "label": "Category:Package Registry",
    "feature_labels": []
  },
  "container_registry": {
    "name": "Container Registry",
    "stage": "package",
    "group": "package",
    "label": "Category:Container Registry",
    "feature_labels": []
  },
  "helm_chart_registry": {
    "name": "Helm Chart Registry",
    "stage": "package",
    "group": "package",
    "label": "Category:Helm Chart Registry",
    "feature_labels": []
  },
  "dependency_proxy": {
    "name": "Dependency Proxy",
    "stage": "package",
    "group": "package",
    "label": "Category:Dependency Proxy",
    "feature_labels": []
  },
  "dependency_firewall": {
    "name": "Dependency Firewall",
    "stage": "package",
    "group": "package",
    "label": "Category:Dependency Firewall",
    "feature_labels": []
  },
  "release_evidence": {
    "name": "Release Evidence",
    "stage": "package",
    "group": "package",
    "label": "Category:Release Evidence",
    "feature_labels": []
  },
  "git_lfs": {
    "name": "Git LFS",
    "stage": "package",
    "group": "package",
    "label": "Category:Git LFS",
    "feature_labels": []
  },
  "static_application_security_testing": {
    "name": "SAST",
    "stage": "secure",
    "group": "static_analysis",
    "label": "Category:SAST",
    "feature_labels": []
  },
  "dynamic_application_security_testing": {
    "name": "DAST",
    "stage": "secure",
    "group": "dynamic_analysis",
    "label": "Category:DAST",
    "feature_labels": []
  },
  "interactive_application_security_testing": {
    "name": "IAST",
    "stage": "secure",
    "group": "dynamic_analysis",
    "label": "Category:IAST",
    "feature_labels": []
  },
  "fuzz_testing": {
    "name": "Fuzz Testing",
    "stage": "secure",
    "group": "fuzz_testing",
    "label": "group::fuzz testing",
    "feature_labels": []
  },
  "dependency_scanning": {
    "name": "Dependency Scanning",
    "stage": "secure",
    "group": "composition_analysis",
    "label": "Category:Dependency Scanning",
    "feature_labels": [
      "dependency list",
      "security reports integration"
    ]
  },
  "license_compliance": {
    "name": "License Compliance",
    "stage": "secure",
    "group": "composition_analysis",
    "label": "Category:License Compliance",
    "feature_labels": []
  },
  "secret_detection": {
    "name": "Secret Detection",
    "stage": "secure",
    "group": "static_analysis",
    "label": "group::static analysis",
    "feature_labels": []
  },
  "vulnerability_database": {
    "name": "Vulnerability Database",
    "stage": "secure",
    "group": "vulnerability_research",
    "label": "Category:Vulnerability Database",
    "feature_labels": []
  },
  "security_benchmarking": {
    "name": "Security Benchmarking",
    "stage": "secure",
    "group": "vulnerability_research",
    "label": "group::vulnerability research",
    "feature_labels": []
  },
  "attack_emulation": {
    "name": "Attack Emulation",
    "stage": "secure",
    "group": "dynamic_analysis",
    "label": "Category:Attack Emulation",
    "feature_labels": []
  },
  "container_scanning": {
    "name": "Container Scanning",
    "stage": "protect",
    "group": "container_security",
    "label": "Category:Container Scanning",
    "feature_labels": []
  },
  "web_firewall": {
    "name": "WAF",
    "stage": "protect",
    "group": "container_security",
    "label": "Category:WAF",
    "feature_labels": []
  },
  "security_orchestration": {
    "name": "Security Orchestration",
    "stage": "protect",
    "group": "container_security",
    "label": "Category:Security Orchestration",
    "feature_labels": []
  },
  "container_host_security": {
    "name": "Container Host Security",
    "stage": "protect",
    "group": "container_security",
    "label": "Category:Container Host Security",
    "feature_labels": []
  },
  "vulnerability_management": {
    "name": "Vulnerability Management",
    "stage": "secure",
    "group": "threat_insights",
    "label": "Category:Vulnerability Management",
    "feature_labels": [
      "MR security reports",
      "pipeline security reports"
    ]
  },
  "container_network_security": {
    "name": "Container Network Security",
    "stage": "protect",
    "group": "container_security",
    "label": "Category:Container Network Security",
    "feature_labels": []
  },
  "continuous_delivery": {
    "name": "Continuous Delivery",
    "stage": "release",
    "group": "release",
    "label": "Category:Continuous Delivery",
    "feature_labels": []
  },
  "pages": {
    "name": "Pages",
    "stage": "release",
    "group": "release",
    "label": "Category:Pages",
    "feature_labels": []
  },
  "review_apps": {
    "name": "Review Apps",
    "stage": "release",
    "group": "release",
    "label": "Category:Review Apps",
    "feature_labels": []
  },
  "merge_trains": {
    "name": "Merge Trains",
    "stage": "verify",
    "group": "continuous_integration",
    "label": "Category:Merge Trains",
    "feature_labels": []
  },
  "advanced_deployments": {
    "name": "Advanced Deployments",
    "stage": "release",
    "group": "release",
    "label": "Category:Advanced Deployments",
    "feature_labels": []
  },
  "feature_flags": {
    "name": "Feature Flags",
    "stage": "release",
    "group": "release",
    "label": "Category:Feature Flags",
    "feature_labels": []
  },
  "release_orchestration": {
    "name": "Release Orchestration",
    "stage": "release",
    "group": "release",
    "label": "Category:Release Orchestration",
    "feature_labels": []
  },
  "auto_devops": {
    "name": "Auto DevOps",
    "stage": "configure",
    "group": "configure",
    "label": "Category:Auto DevOps",
    "feature_labels": []
  },
  "kubernetes_management": {
    "name": "Kubernetes Management",
    "stage": "configure",
    "group": "configure",
    "label": "Category:Kubernetes Management",
    "feature_labels": []
  },
  "secrets_management": {
    "name": "Secrets Management",
    "stage": "release",
    "group": null,
    "label": "Category:Secrets Management",
    "feature_labels": [
      "ci::variables",
      "ci::permissions",
      "deploy keys"
    ]
  },
  "chatops": {
    "name": "ChatOps",
    "stage": "configure",
    "group": "configure",
    "label": "Category:ChatOps",
    "feature_labels": []
  },
  "runbooks": {
    "name": "Runbooks",
    "stage": "monitor",
    "group": null,
    "label": "Category:Runbooks",
    "feature_labels": []
  },
  "serverless": {
    "name": "Serverless",
    "stage": "configure",
    "group": "configure",
    "label": "Category:Serverless",
    "feature_labels": []
  },
  "infrastructure_as_code": {
    "name": "Infrastructure as Code",
    "stage": "configure",
    "group": "configure",
    "label": "Category:Infrastructure as Code",
    "feature_labels": []
  },
  "cluster_cost_management": {
    "name": "Cluster Cost Management",
    "stage": "configure",
    "group": "configure",
    "label": "Category:Cluster Cost Management",
    "feature_labels": []
  },
  "metrics": {
    "name": "Metrics",
    "stage": "monitor",
    "group": "monitor",
    "label": "Category:Metrics",
    "feature_labels": []
  },
  "incident_management": {
    "name": "Incident Management",
    "stage": "monitor",
    "group": "monitor",
    "label": "Category:Incident Management",
    "feature_labels": []
  },
  "logging": {
    "name": "Logging",
    "stage": "monitor",
    "group": "monitor",
    "label": "Category:Logging",
    "feature_labels": []
  },
  "tracing": {
    "name": "Tracing",
    "stage": "monitor",
    "group": "monitor",
    "label": "Category:Tracing",
    "feature_labels": []
  },
  "self_monitoring": {
    "name": "GitLab Self-Monitoring",
    "stage": "monitor",
    "group": "monitor",
    "label": "Category:GitLab Self-Monitoring",
    "feature_labels": []
  },
  "error_tracking": {
    "name": "Error Tracking",
    "stage": "monitor",
    "group": "monitor",
    "label": "Category:Error Tracking",
    "feature_labels": []
  },
  "product_analytics": {
    "name": "Product Analytics",
    "stage": "monitor",
    "group": "monitor",
    "label": "Category:Product Analytics",
    "feature_labels": []
  },
  "synthetic_monitoring": {
    "name": "Synthetic Monitoring",
    "stage": "monitor",
    "group": "monitor",
    "label": "Category:Synthetic Monitoring",
    "feature_labels": []
  },
  "global_search": {
    "name": "Global Search",
    "stage": "enablement",
    "group": "global_search",
    "label": "Category:Global Search",
    "feature_labels": [
      "elasticsearch"
    ]
  },
  "omnibus_package": {
    "name": "Omnibus Package",
    "stage": "enablement",
    "group": "distribution",
    "label": "Category:Omnibus Package",
    "feature_labels": []
  },
  "cloud_native_installation": {
    "name": "Cloud Native Installation",
    "stage": "enablement",
    "group": "distribution",
    "label": "Category:Cloud Native Installation",
    "feature_labels": []
  },
  "backup_restore": {
    "name": "Backup/Restore of GitLab instances",
    "stage": "enablement",
    "group": "geo",
    "label": "Category:Backup/Restore of GitLab instances",
    "feature_labels": []
  },
  "geo_replication": {
    "name": "Geo-replication",
    "stage": "enablement",
    "group": "geo",
    "label": "Category:Geo-replication",
    "feature_labels": [
      "Geo Administration",
      "Geo GA",
      "Geo Next Gen",
      "Geo Performance",
      "Geo Replication/Sync",
      "Geo Verification/Accuracy",
      "Geo : Automatic Verification",
      "Geo : Kubernetes",
      "Geo : Replication Lag Warning",
      "Geo : Selective Sync"
    ]
  },
  "disaster_recovery": {
    "name": "Disaster Recovery",
    "stage": "enablement",
    "group": "geo",
    "label": "Category:Disaster Recovery",
    "feature_labels": [
      "Geo DR"
    ]
  },
  "database": {
    "name": "Database",
    "stage": "enablement",
    "group": "database",
    "label": "Category:Database",
    "feature_labels": []
  },
  "memory": {
    "name": "Memory",
    "stage": "enablement",
    "group": "memory",
    "label": "Category:Memory",
    "feature_labels": []
  },
  "infrastructure": {
    "name": "Infrastructure",
    "stage": "enablement",
    "group": "infrastructure",
    "label": "Category:Infrastructure",
    "feature_labels": []
  },
  "collection": {
    "name": "Collection",
    "stage": "growth",
    "group": "product_analytics",
    "label": "Category:Collection",
    "feature_labels": []
  },
  "analysis": {
    "name": "Analysis",
    "stage": "growth",
    "group": "product_analytics",
    "label": "Category:Analysis",
    "feature_labels": []
  },
  "navigation": {
    "name": "Navigation & Settings",
    "stage": "create",
    "group": "editor",
    "label": "Category:Navigation & Settings",
    "feature_labels": []
  },
  "purchase": {
    "name": "Purchase",
    "stage": "fulfillment",
    "group": "purchase",
    "label": "Category:Purchase",
    "feature_labels": []
  },
  "provision": {
    "name": "Provision",
    "stage": "fulfillment",
    "group": "provision",
    "label": "Category:Provision",
    "feature_labels": []
  },
  "insider_threat": {
    "name": "Insider Threat",
    "stage": "learn",
    "group": "ML/AI",
    "label": "group::machine learning",
    "feature_labels": []
  },
  "mlops": {
    "name": "MLOps",
    "stage": "learn",
    "group": "ML/AI",
    "label": "group::machine learning",
    "feature_labels": []
  },
  "mobile_signing_deployment": {
    "name": "Mobile App Signing & Deployment Management",
    "stage": "mobile",
    "group": "moble_devops",
    "label": "group::MobileDevOps",
    "feature_labels": []
  },
  "five_minute_production_app": {
    "name": "5 Minute Production App",
    "stage": "deploy",
    "group": "5-min-app",
    "label": "group::5MinProduction",
    "feature_labels": []
  }
}

