{
  "access": {
    "name": "Access",
    "section": "dev",
    "stage": "manage",
    "categories": [
      "authentication_and_authorization",
      "subgroups",
      "users"
    ],
    "label": "group::access"
  },
  "compliance": {
    "name": "Compliance",
    "section": "dev",
    "stage": "manage",
    "categories": [
      "audit_events",
      "audit_reports",
      "compliance_management"
    ],
    "label": "group::compliance"
  },
  "import": {
    "name": "Import",
    "section": "dev",
    "stage": "manage",
    "categories": [
      "importers",
      "internationalization",
      "templates"
    ],
    "label": "group::import"
  },
  "optimize": {
    "name": "Optimize",
    "section": "dev",
    "stage": "manage",
    "categories": [
      "devops_reports",
      "planning_analytics",
      "code_analytics",
      "value_stream_management",
      "insights"
    ],
    "label": "group::optimize"
  },
  "project_management": {
    "name": "Project Management",
    "section": "dev",
    "stage": "plan",
    "categories": [
      "issue_tracking",
      "boards",
      "time_tracking",
      "jira_importer",
      "projects"
    ],
    "label": "group::project management"
  },
  "product_planning": {
    "name": "Product Planning",
    "section": "dev",
    "stage": "plan",
    "categories": [
      "epics",
      "roadmaps",
      "design_management"
    ],
    "label": "group::product planning"
  },
  "certify": {
    "name": "Certify",
    "section": "dev",
    "stage": "plan",
    "categories": [
      "requirements_management",
      "quality_management",
      "service_desk"
    ],
    "label": "group::certify"
  },
  "source_code": {
    "name": "Source Code",
    "section": "dev",
    "stage": "create",
    "categories": [
      "source_code_management"
    ],
    "label": "group::source code"
  },
  "code_review": {
    "name": "Code Review",
    "section": "dev",
    "stage": "create",
    "categories": [
      "code_review",
      "editor_extension"
    ],
    "label": "group::code review"
  },
  "editor": {
    "name": "Editor",
    "section": "dev",
    "stage": "create",
    "categories": [
      "web_ide",
      "snippets",
      "live_preview",
      "wiki",
      "static_site_editor",
      "gitlab_docs",
      "navigation"
    ],
    "label": "group::editor"
  },
  "gitaly": {
    "name": "Gitaly",
    "section": "dev",
    "stage": "create",
    "categories": [
      "gitaly"
    ],
    "label": "group::gitaly"
  },
  "ecosystem": {
    "name": "Ecosystem",
    "section": "dev",
    "stage": "create",
    "categories": [
      "api",
      "integrations",
      "gdk",
      "foundations"
    ],
    "label": "group::ecosystem"
  },
  "continuous_integration": {
    "name": "Continuous Integration",
    "section": "ops",
    "stage": "verify",
    "categories": [
      "continuous_integration",
      "merge_trains",
      "jenkins_importer"
    ],
    "label": "group::continuous integration"
  },
  "pipeline_authoring": {
    "name": "Pipeline Authoring",
    "section": "ops",
    "stage": "verify",
    "categories": [
      "pipeline_authoring"
    ],
    "label": "group::pipeline authoring"
  },
  "runner": {
    "name": "Runner",
    "section": "ops",
    "stage": "verify",
    "categories": [
      "runner"
    ],
    "label": "group::runner"
  },
  "testing": {
    "name": "Testing",
    "section": "ops",
    "stage": "verify",
    "categories": [
      "code_quality",
      "code_testing",
      "load_testing",
      "web_performance",
      "usability_testing",
      "accessibility_testing"
    ],
    "label": "group::testing"
  },
  "package": {
    "name": "Package",
    "section": "ops",
    "stage": "package",
    "categories": [
      "container_registry",
      "package_registry",
      "helm_chart_registry",
      "dependency_proxy",
      "dependency_firewall",
      "git_lfs",
      "release_evidence"
    ],
    "label": "group::package"
  },
  "static_analysis": {
    "name": "Static Analysis",
    "section": "sec",
    "stage": "secure",
    "categories": [
      "static_application_security_testing",
      "secret_detection"
    ],
    "label": "group::static analysis"
  },
  "dynamic_analysis": {
    "name": "Dynamic Analysis",
    "section": "sec",
    "stage": "secure",
    "categories": [
      "dynamic_application_security_testing",
      "interactive_application_security_testing",
      "attack_emulation"
    ],
    "label": "group::dynamic analysis"
  },
  "composition_analysis": {
    "name": "Composition Analysis",
    "section": "sec",
    "stage": "secure",
    "categories": [
      "dependency_scanning",
      "license_compliance"
    ],
    "label": "group::composition analysis"
  },
  "fuzz_testing": {
    "name": "Fuzz Testing",
    "section": "sec",
    "stage": "secure",
    "categories": [
      "fuzz_testing"
    ],
    "label": "group::fuzz testing"
  },
  "threat_insights": {
    "name": "Threat Insights",
    "section": "sec",
    "stage": "secure",
    "categories": [
      "vulnerability_management"
    ],
    "label": "group::threat insights"
  },
  "vulnerability_research": {
    "name": "Vulnerability Research",
    "section": "sec",
    "stage": "secure",
    "categories": [
      "vulnerability_database",
      "security_benchmarking"
    ],
    "label": "group::vulnerability research"
  },
  "release": {
    "name": "Release",
    "section": "ops",
    "stage": "release",
    "categories": [
      "continuous_delivery",
      "advanced_deployments",
      "review_apps",
      "feature_flags",
      "release_orchestration",
      "pages"
    ],
    "label": "group::release"
  },
  "configure": {
    "name": "Configure",
    "section": "ops",
    "stage": "configure",
    "categories": [
      "auto_devops",
      "infrastructure_as_code",
      "kubernetes_management",
      "cluster_cost_management",
      "serverless",
      "secrets_management",
      "chatops",
      "runbooks"
    ],
    "label": "group::configure"
  },
  "monitor": {
    "name": "Monitor",
    "section": "ops",
    "stage": "monitor",
    "categories": [
      "error_tracking",
      "incident_management",
      "metrics",
      "tracing",
      "logging",
      "synthetic_monitoring",
      "self_monitoring",
      "product_analytics"
    ],
    "label": "group::monitor"
  },
  "container_security": {
    "name": "Container Security",
    "section": "sec",
    "stage": "protect",
    "categories": [
      "web_firewall",
      "security_orchestration",
      "container_network_security",
      "container_host_security",
      "container_scanning"
    ],
    "label": "group::container security"
  },
  "purchase": {
    "name": "Purchase",
    "section": "fulfillment",
    "stage": "fulfillment",
    "categories": [
      "purchase"
    ],
    "label": "group::purchase"
  },
  "provision": {
    "name": "Provision",
    "section": "fulfillment",
    "stage": "fulfillment",
    "categories": [
      "provision"
    ],
    "label": "group::license"
  },
  "activation": {
    "name": "Activation",
    "section": "growth",
    "stage": "growth",
    "categories": [],
    "label": "group::activation"
  },
  "conversion": {
    "name": "Conversion",
    "section": "growth",
    "stage": "growth",
    "categories": [],
    "label": "group::conversion"
  },
  "expansion": {
    "name": "Expansion",
    "section": "growth",
    "stage": "growth",
    "categories": [],
    "label": "group::expansion"
  },
  "adoption": {
    "name": "Adoption",
    "section": "growth",
    "stage": "growth",
    "categories": [],
    "label": "group::adoption"
  },
  "product_analytics": {
    "name": "Product Analytics",
    "section": "growth",
    "stage": "growth",
    "categories": [
      "collection",
      "analysis"
    ],
    "label": "group::product analytics"
  },
  "distribution": {
    "name": "Distribution",
    "section": "enablement",
    "stage": "enablement",
    "categories": [
      "omnibus_package",
      "cloud_native_installation"
    ],
    "label": "group::distribution"
  },
  "geo": {
    "name": "Geo",
    "section": "enablement",
    "stage": "enablement",
    "categories": [
      "geo_replication",
      "disaster_recovery",
      "backup_restore"
    ],
    "label": "group::geo"
  },
  "memory": {
    "name": "Memory",
    "section": "enablement",
    "stage": "enablement",
    "categories": [
      "memory"
    ],
    "label": "group::memory"
  },
  "global_search": {
    "name": "Global Search",
    "section": "enablement",
    "stage": "enablement",
    "categories": [
      "global_search"
    ],
    "label": "group::global search"
  },
  "database": {
    "name": "Database",
    "section": "enablement",
    "stage": "enablement",
    "categories": [
      "database"
    ],
    "label": "group::database"
  },
  "infrastructure": {
    "name": "Infrastructure",
    "section": "enablement",
    "stage": "enablement",
    "categories": [
      "infrastructure"
    ],
    "label": "group::infrastructure"
  },
  "ML/AI": {
    "name": "Machine Learning",
    "section": "spg",
    "stage": "learn",
    "categories": [
      "mlops",
      "insider_threat"
    ],
    "label": "group::ML/AI"
  },
  "moble_devops": {
    "name": "DevOps for Mobile Apps",
    "section": "spg",
    "stage": "mobile",
    "categories": [
      "mobile_signing_deployment"
    ],
    "label": "group::moble devops"
  },
  "5-min-app": {
    "name": "Five Minute Production App",
    "section": "spg",
    "stage": "deploy",
    "categories": [
      "five_minute_production_app"
    ],
    "label": "group::5-min-app"
  }
}
